================================================================================
                             BASIC COUNTER INIT                             
================================================================================

Set Variable [ $void; Value: Let ( [ $i = 0; $j = ValueCount ( $recordKeyList ) ]; $void ) ]